{
  "basePath" : "${rest.ipify.basepath}",
  "paths" : {
    "/" : {
      "x-WM-BASE_PATH" : "/",
      "x-WM-TAG" : "RestServiceVirtualController",
      "x-WM-RELATIVE_PATH" : "",
      "get" : {
        "x-WM-METHOD_NAME" : "invoke",
        "x-WM-ACCESS_SPECIFIER" : "APP_ONLY",
        "produces" : [ "text/plain" ],
        "operationId" : "ipify_RestServiceVirtualController-invoke",
        "responses" : {
          "200" : {
            "schema" : {
              "$ref" : "#/definitions/RootResponse"
            },
            "description" : "Success"
          }
        },
        "tags" : [ "RestServiceVirtualController" ],
        "consumes" : [ "application/json" ]
      },
      "x-WM-COMPLETE_PATH" : "${rest.ipify.scheme}://${rest.ipify.host}${rest.ipify.basepath}/"
    }
  },
  "host" : "${rest.ipify.host}",
  "schemes" : [ "${rest.ipify.scheme}" ],
  "definitions" : {
    "RootResponse" : {
      "x-WM-FULLY_QUALIFIED_NAME" : "ipify.RootResponse",
      "x-WM-TAGS" : [ "RestServiceVirtualController" ]
    }
  },
  "swagger" : "2.0",
  "info" : {
    "x-WM-USE_PROXY_FOR_WEB" : true,
    "x-WM-USE_PROXY_FOR_MOBILE" : true,
    "x-WM-API_ID" : "39dd845d-4f83-47ff-a246-a686207916bf",
    "x-WM-SERVICE_ID" : "ipify",
    "version" : "2.0",
    "x-WM-SERVICE_TYPE" : "RestService"
  },
  "tags" : [ {
    "name" : "RestServiceVirtualController",
    "description" : "Rest service swagger documentation"
  } ]
}