{
  "swagger" : "2.0",
  "info" : {
    "version" : "2.0",
    "x-WM-USE_PROXY_FOR_WEB" : false,
    "x-WM-USE_PROXY_FOR_MOBILE" : false,
    "x-WM-API_ID" : "efae085f-a48c-4a93-912a-b79a546897ea",
    "x-WM-SERVICE_ID" : "randomuser",
    "x-WM-SERVICE_TYPE" : "RestService"
  },
  "host" : "api.randomuser.me",
  "basePath" : "",
  "tags" : [ {
    "name" : "RestServiceVirtualController",
    "description" : "Rest service swagger documentation"
  } ],
  "schemes" : [ "https" ],
  "paths" : {
    "/" : {
      "get" : {
        "tags" : [ "RestServiceVirtualController" ],
        "operationId" : "randomuser_RestServiceVirtualController-invoke",
        "consumes" : [ "application/json" ],
        "produces" : [ "application/json" ],
        "parameters" : [ {
          "name" : "results",
          "in" : "query",
          "description" : "results",
          "required" : false,
          "type" : "string",
          "format" : "string",
          "x-WM-EDITABLE" : false
        } ],
        "responses" : {
          "200" : {
            "description" : "Success",
            "schema" : {
              "$ref" : "#/definitions/RootResponse"
            }
          }
        },
        "x-WM-METHOD_NAME" : "invoke",
        "x-WM-ACCESS_SPECIFIER" : "APP_ONLY"
      },
      "x-WM-BASE_PATH" : "/",
      "x-WM-TAG" : "RestServiceVirtualController",
      "x-WM-RELATIVE_PATH" : "",
      "x-WM-COMPLETE_PATH" : "${rest.randomuser.scheme}://${rest.randomuser.host}${rest.randomuser.basepath}/"
    }
  },
  "definitions" : {
    "dob" : {
      "required" : [ "age", "date" ],
      "properties" : {
        "date" : {
          "type" : "string"
        },
        "age" : {
          "type" : "integer",
          "format" : "int32"
        }
      },
      "x-WM-FULLY_QUALIFIED_NAME" : "randomuser.dob",
      "x-WM-TAGS" : [ "RestServiceVirtualController" ]
    },
    "timezone" : {
      "required" : [ "description", "offset" ],
      "properties" : {
        "offset" : {
          "type" : "string"
        },
        "description" : {
          "type" : "string"
        }
      },
      "x-WM-FULLY_QUALIFIED_NAME" : "randomuser.timezone",
      "x-WM-TAGS" : [ "RestServiceVirtualController" ]
    },
    "name" : {
      "required" : [ "first", "last", "title" ],
      "properties" : {
        "last" : {
          "type" : "string"
        },
        "title" : {
          "type" : "string"
        },
        "first" : {
          "type" : "string"
        }
      },
      "x-WM-FULLY_QUALIFIED_NAME" : "randomuser.name",
      "x-WM-TAGS" : [ "RestServiceVirtualController" ]
    },
    "coordinates" : {
      "required" : [ "latitude", "longitude" ],
      "properties" : {
        "latitude" : {
          "type" : "string"
        },
        "longitude" : {
          "type" : "string"
        }
      },
      "x-WM-FULLY_QUALIFIED_NAME" : "randomuser.coordinates",
      "x-WM-TAGS" : [ "RestServiceVirtualController" ]
    },
    "registered" : {
      "required" : [ "age", "date" ],
      "properties" : {
        "date" : {
          "type" : "string"
        },
        "age" : {
          "type" : "integer",
          "format" : "int32"
        }
      },
      "x-WM-FULLY_QUALIFIED_NAME" : "randomuser.registered",
      "x-WM-TAGS" : [ "RestServiceVirtualController" ]
    },
    "location" : {
      "required" : [ "city", "coordinates", "postcode", "state", "street", "timezone" ],
      "properties" : {
        "city" : {
          "type" : "string"
        },
        "street" : {
          "type" : "string"
        },
        "timezone" : {
          "$ref" : "#/definitions/timezone"
        },
        "postcode" : {
          "type" : "integer",
          "format" : "int32"
        },
        "coordinates" : {
          "$ref" : "#/definitions/coordinates"
        },
        "state" : {
          "type" : "string"
        }
      },
      "x-WM-FULLY_QUALIFIED_NAME" : "randomuser.location",
      "x-WM-TAGS" : [ "RestServiceVirtualController" ]
    },
    "resultsEntryItem" : {
      "required" : [ "cell", "dob", "email", "gender", "id", "location", "login", "name", "nat", "phone", "picture", "registered" ],
      "properties" : {
        "nat" : {
          "type" : "string"
        },
        "gender" : {
          "type" : "string"
        },
        "phone" : {
          "type" : "string"
        },
        "dob" : {
          "$ref" : "#/definitions/dob"
        },
        "name" : {
          "$ref" : "#/definitions/name"
        },
        "registered" : {
          "$ref" : "#/definitions/registered"
        },
        "location" : {
          "$ref" : "#/definitions/location"
        },
        "id" : {
          "$ref" : "#/definitions/id"
        },
        "login" : {
          "$ref" : "#/definitions/login"
        },
        "cell" : {
          "type" : "string"
        },
        "email" : {
          "type" : "string"
        },
        "picture" : {
          "$ref" : "#/definitions/picture"
        }
      },
      "x-WM-FULLY_QUALIFIED_NAME" : "randomuser.resultsEntryItem",
      "x-WM-TAGS" : [ "RestServiceVirtualController" ]
    },
    "id" : {
      "required" : [ "name", "value" ],
      "properties" : {
        "name" : {
          "type" : "string"
        },
        "value" : {
          "type" : "string"
        }
      },
      "x-WM-FULLY_QUALIFIED_NAME" : "randomuser.id",
      "x-WM-TAGS" : [ "RestServiceVirtualController" ]
    },
    "login" : {
      "required" : [ "md5", "password", "salt", "sha1", "sha256", "username", "uuid" ],
      "properties" : {
        "sha1" : {
          "type" : "string"
        },
        "password" : {
          "type" : "string"
        },
        "salt" : {
          "type" : "string"
        },
        "sha256" : {
          "type" : "string"
        },
        "uuid" : {
          "type" : "string"
        },
        "username" : {
          "type" : "string"
        },
        "md5" : {
          "type" : "string"
        }
      },
      "x-WM-FULLY_QUALIFIED_NAME" : "randomuser.login",
      "x-WM-TAGS" : [ "RestServiceVirtualController" ]
    },
    "picture" : {
      "required" : [ "large", "medium", "thumbnail" ],
      "properties" : {
        "thumbnail" : {
          "type" : "string"
        },
        "large" : {
          "type" : "string"
        },
        "medium" : {
          "type" : "string"
        }
      },
      "x-WM-FULLY_QUALIFIED_NAME" : "randomuser.picture",
      "x-WM-TAGS" : [ "RestServiceVirtualController" ]
    },
    "RootResponse" : {
      "required" : [ "info", "results" ],
      "properties" : {
        "results" : {
          "type" : "array",
          "items" : {
            "$ref" : "#/definitions/resultsEntryItem"
          },
          "x-WM-IS_LIST" : true
        },
        "info" : {
          "$ref" : "#/definitions/info"
        }
      },
      "x-WM-FULLY_QUALIFIED_NAME" : "randomuser.RootResponse",
      "x-WM-TAGS" : [ "RestServiceVirtualController" ]
    },
    "info" : {
      "required" : [ "page", "results", "seed", "version" ],
      "properties" : {
        "seed" : {
          "type" : "string"
        },
        "page" : {
          "type" : "integer",
          "format" : "int32"
        },
        "results" : {
          "type" : "integer",
          "format" : "int32"
        },
        "version" : {
          "type" : "string"
        }
      },
      "x-WM-FULLY_QUALIFIED_NAME" : "randomuser.info",
      "x-WM-TAGS" : [ "RestServiceVirtualController" ]
    }
  }
}